@startuml
package "Personal Finances Project" {
    package "Mobile App (IOS/Android)" {
        [React Native]
        database NeDB1 as "NeDB"
    }
    package "Desktop App (Windows/Linux)" {
        [Electron]
        [React]
        database NeDB2 as "NeDB"
    }
    cloud Dropbox

    NeDB1 <--> Dropbox : backup
    NeDB2 <--> Dropbox : backup
}

@enduml